<?xml version="1.0" encoding="utf-8"?>
<!-- Generator: Adobe Illustrator 19.0.0, SVG Export Plug-In . SVG Version: 6.00 Build 0)  -->
<svg version="1.1" id="Layer_1" xmlns="http://www.w3.org/2000/svg" xmlns:xlink="http://www.w3.org/1999/xlink" x="0px" y="0px"
	 viewBox="-301 261.1 238.7 73.2" style="enable-background:new -301 261.1 238.7 73.2;" xml:space="preserve">
<style type="text/css">
	.st0{fill:#0D1140;}
	.st1{fill:#FBAB1A;}
</style>
<g>
	<g id="Layer_1_1_">
		<g>
			<path class="st0" d="M-272.6,273.1c-1.8,0-3.4,1.8-3.4,3.6c0,14.3,0,14.3,0,14.3c-0.7-1.3-3.2-3.4-9-3.4c-9.4,0-16,7.4-16,17.4
				c0,10.5,7,17.8,16.4,17.8c4.1,0,7.4-1.8,9-4c0,1.3,0.2,3.1,0.4,3.1c9.7,0,9.7,0,9.7,0c0-5.8,0-5.8,0-5.8c0-42.9,0-42.9,0-42.9
				L-272.6,273.1L-272.6,273.1z M-283.2,313.5c-4.2,0-7.6-2.9-7.6-8.3c0-5.6,3.4-8.3,7.6-8.3c4,0,7.4,2.7,7.4,8.3
				C-275.8,310.6-279.2,313.5-283.2,313.5"/>
			<path class="st1" d="M-262.2,278.2c0-3.3,2.7-6.1,6-6.1c3.3,0,6,2.7,6,6.1s-2.7,6.1-6,6.1C-259.5,284.3-262.2,281.5-262.2,278.2z
				"/>
			<path class="st0" d="M-257.4,288.3c-2,0-3.6,1.8-3.6,3.4c0,30.1,0,30.1,0,30.1c9.9,0,9.9,0,9.9,0c0-33.5,0-33.5,0-33.5H-257.4z"
				/>
			<path class="st0" d="M-209.8,273.1c-2,0-3.6,1.8-3.6,3.6c0,45.1,0,45.1,0,45.1c9.9,0,9.9,0,9.9,0c0-48.7,0-48.7,0-48.7H-209.8z"
				/>
			<path class="st0" d="M-193.7,285.6c0-12.5,0-12.5,0-12.5c4.5,0,4.5,0,4.5,0c3.8,0,6.3,2.5,6.3,6.3s-2.5,6.1-6.3,6.1h-4.5V285.6z
				 M-189.2,283.1c1.8,0,3.4-1.1,3.4-3.6s-1.6-3.6-3.4-3.6c-1.6,0-1.6,0-1.6,0c0,7.3,0,7.3,0,7.3L-189.2,283.1L-189.2,283.1z"/>
			<path class="st0" d="M-180.2,272.8c0.9,0,1.6,0.7,1.6,1.5c0,0.9-0.7,1.6-1.6,1.6c-0.7,0-1.4-0.7-1.4-1.6
				C-181.7,273.5-181,272.8-180.2,272.8 M-181.5,276.9c2.7,0,2.7,0,2.7,0c0,8.7,0,8.7,0,8.7c-2.7,0-2.7,0-2.7,0V276.9z"/>
			<path class="st0" d="M-174.9,285.4c0.2,0.9,0.9,1.4,1.8,1.4c1.4,0,2.2-0.5,2.2-2.2c0-0.4,0-0.4,0-0.4c-0.2,0.4-1.1,0.9-2.3,0.9
				c-2.2,0-4-1.8-4-4.2s1.6-4.3,4-4.3c1.4,0,2.3,0.7,2.5,1.1c0-0.9,0-0.9,0-0.9c2.5,0,2.5,0,2.5,0c0,7.6,0,7.6,0,7.6
				c0,2.5-1.4,4.7-4.7,4.7c-2.5,0-4.1-1.4-4.3-3.1L-174.9,285.4z M-171,281c0-1.3-0.7-2-1.8-2c-0.9,0-1.8,0.7-1.8,2
				c0,1.1,0.7,1.8,1.8,1.8S-171,282.1-171,281"/>
			<path class="st0" d="M-164.9,272.8c0.7,0,1.4,0.7,1.4,1.5c0,0.9-0.7,1.6-1.4,1.6c-0.9,0-1.6-0.7-1.6-1.6
				C-166.5,273.5-165.8,272.8-164.9,272.8 M-166.3,276.9c2.7,0,2.7,0,2.7,0c0,8.7,0,8.7,0,8.7c-2.7,0-2.7,0-2.7,0V276.9z"/>
			<path class="st0" d="M-158.1,276.8c1.6,0,1.6,0,1.6,0c0,2.4,0,2.4,0,2.4c-1.6,0-1.6,0-1.6,0c0,3.2,0,3.2,0,3.2
				c0,0.7,0.4,0.9,0.9,0.9c0.2,0,0.5,0,0.7,0c0,2.2,0,2.2,0,2.2c-0.2,0-0.5,0.2-1.4,0.2c-1.8,0-2.9-1.1-2.9-2.7c0-3.8,0-3.8,0-3.8
				c-1.6,0-1.6,0-1.6,0c0-2.4,0-2.4,0-2.4c0.5,0,0.5,0,0.5,0c0.9,0,1.3-0.5,1.3-1.4c0-1.1,0-1.1,0-1.1c2.5,0,2.5,0,2.5,0V276.8z"/>
			<path class="st0" d="M-152.8,280.5c2-0.2,2-0.2,2-0.2c0.5-0.2,0.7-0.4,0.7-0.7c0-0.4-0.5-0.9-1.3-0.9c-1.1,0-1.4,0.7-1.6,1.3
				c-2.3-0.4-2.3-0.4-2.3-0.4c0.2-1.3,1.3-2.9,4-2.9s3.8,1.5,3.8,3.3c0,4.3,0,4.3,0,4.3c0,0.7,0,1.3,0.2,1.3c-2.5,0-2.5,0-2.5,0
				s0-0.4,0-0.9c-0.5,0.7-1.3,1.3-2.5,1.3c-1.8,0-2.9-1.3-2.9-2.7C-155.3,281.6-154.3,280.8-152.8,280.5 M-150.1,282.1
				c0-0.4,0-0.4,0-0.4c-1.6,0.4-1.6,0.4-1.6,0.4c-0.7,0-1.1,0.4-1.1,0.9s0.4,0.9,1.1,0.9C-151,283.9-150.1,283.5-150.1,282.1"/>
			<rect x="-145.5" y="272.9" class="st0" width="2.7" height="12.7"/>
			<rect x="-193.7" y="291.2" class="st0" width="2.9" height="12.5"/>
			<path class="st0" d="M-188.4,303.6c0-8.7,0-8.7,0-8.7c2.5,0,2.5,0,2.5,0c0,1.1,0,1.1,0,1.1c0.4-0.9,1.4-1.3,2.5-1.3
				c1.3,0,2.2,0.4,2.5,1.3c0.7-0.9,1.5-1.3,2.7-1.3c1.6,0,3.2,0.9,3.2,3.2c0,5.6,0,5.6,0,5.6c-2.5,0-2.5,0-2.5,0c0-5.1,0-5.1,0-5.1
				c0-0.7-0.5-1.5-1.4-1.5s-1.5,0.7-1.5,1.5c0,5.1,0,5.1,0,5.1c-2.7,0-2.7,0-2.7,0c0-5.1,0-5.1,0-5.1c0-0.7-0.4-1.5-1.4-1.5
				c-0.9,0-1.3,0.7-1.3,1.6c0,4.9,0,4.9,0,4.9h-2.6V303.6z"/>
			<path class="st0" d="M-172.9,307.1c0-12.1,0-12.1,0-12.1c2.5,0,2.5,0,2.5,0c0,0.9,0,0.9,0,0.9c0.4-0.5,1.4-1.1,2.7-1.1
				c2.5,0,4,2,4,4.5c0,2.7-1.6,4.5-4.1,4.5c-1.1,0-2-0.4-2.3-0.9c0,4.1,0,4.1,0,4.1h-2.8L-172.9,307.1L-172.9,307.1z M-168.2,297.1
				c-1.1,0-2,0.7-2,2.2c0,1.4,0.9,2.2,2,2.2c0.9,0,2-0.7,2-2.2S-167.3,297.1-168.2,297.1"/>
			<path class="st0" d="M-160.2,298.6c2-0.2,2-0.2,2-0.2c0.5-0.2,0.7-0.4,0.7-0.7c0-0.4-0.5-0.9-1.3-0.9c-0.9,0-1.4,0.7-1.4,1.3
				c-2.3-0.4-2.3-0.4-2.3-0.4c0-1.3,1.3-2.9,3.8-2.9c2.9,0,3.8,1.5,3.8,3.2c0,4.3,0,4.3,0,4.3c0,0.7,0.2,1.3,0.2,1.3
				c-2.3,0-2.3,0-2.3,0c-0.2,0-0.2-0.4-0.2-0.9c-0.4,0.7-1.3,1.3-2.5,1.3c-1.8,0-2.9-1.3-2.9-2.7
				C-162.8,299.7-161.7,298.9-160.2,298.6 M-157.5,300.2c0-0.4,0-0.4,0-0.4c-1.6,0.4-1.6,0.4-1.6,0.4c-0.5,0-1.1,0.4-1.1,0.9
				s0.4,0.9,1.1,0.9C-158.4,302-157.5,301.6-157.5,300.2"/>
			<path class="st0" d="M-150.8,299.3c0,1.4,0.9,2.2,2,2.2c1.1,0,1.6-0.5,1.8-1.3c2.3,0.7,2.3,0.7,2.3,0.7c-0.4,1.4-1.8,3.1-4.1,3.1
				c-2.5,0-4.7-2-4.7-4.7s2-4.5,4.7-4.5c2.3,0,3.8,1.5,4.1,2.9c-2.3,0.7-2.3,0.7-2.3,0.7c-0.2-0.5-0.7-1.3-1.8-1.3
				C-149.9,297.1-150.8,297.8-150.8,299.3"/>
			<path class="st0" d="M-139.9,294.9c1.8,0,1.8,0,1.8,0c0,2.4,0,2.4,0,2.4c-1.8,0-1.8,0-1.8,0c0,3.2,0,3.2,0,3.2
				c0,0.7,0.5,0.9,1.1,0.9c0.2,0,0.5,0,0.7,0c0,2.2,0,2.2,0,2.2c-0.2,0-0.5,0.2-1.4,0.2c-1.8,0-2.9-1.1-2.9-2.7c0-3.8,0-3.8,0-3.8
				c-1.6,0-1.6,0-1.6,0c0-2.4,0-2.4,0-2.4c0.5,0,0.5,0,0.5,0c0.9,0,1.2-0.5,1.2-1.4c0-1.1,0-1.1,0-1.1c2.3,0,2.3,0,2.3,0
				L-139.9,294.9L-139.9,294.9z"/>
			<path class="st0" d="M-187,319.3h-4.9l-0.9,2.5h-2.9l4.7-12.5h3.2l4.7,12.5h-3.1L-187,319.3z M-191,316.7h3.1l-1.4-4.2
				L-191,316.7z"/>
			<rect x="-182.2" y="309.1" class="st0" width="2.7" height="12.7"/>
			<rect x="-177.5" y="309.1" class="st0" width="2.5" height="12.7"/>
			<path class="st0" d="M-171.6,309c0.9,0,1.6,0.5,1.6,1.4s-0.7,1.6-1.6,1.6c-0.7,0-1.4-0.7-1.4-1.6
				C-173.1,309.5-172.3,309-171.6,309 M-172.9,313.1c2.7,0,2.7,0,2.7,0c0,8.7,0,8.7,0,8.7c-2.7,0-2.7,0-2.7,0V313.1z"/>
			<path class="st0" d="M-166.1,316.7c2-0.2,2-0.2,2-0.2c0.5-0.2,0.7-0.4,0.7-0.7c0-0.4-0.5-0.9-1.4-0.9s-1.4,0.7-1.4,1.3
				c-2.3-0.4-2.3-0.4-2.3-0.4c0.2-1.3,1.3-2.9,4-2.9s3.8,1.5,3.8,3.3c0,4.4,0,4.4,0,4.4c0,0.7,0,1.3,0,1.3c-2.3,0-2.3,0-2.3,0
				s0-0.4,0-0.9c-0.5,0.7-1.3,1.3-2.5,1.3c-1.8,0-3.1-1.3-3.1-2.7C-168.8,317.8-167.6,317-166.1,316.7 M-163.4,318.3
				c0-0.4,0-0.4,0-0.4c-1.8,0.4-1.8,0.4-1.8,0.4c-0.5,0-0.9,0.4-0.9,0.9c0,0.4,0.4,0.9,1.1,0.9
				C-164.3,320.1-163.4,319.8-163.4,318.3"/>
			<path class="st0" d="M-156.2,321.8c-2.7,0-2.7,0-2.7,0c0-8.7,0-8.7,0-8.7c2.5,0,2.5,0,2.5,0c0,1.1,0,1.1,0,1.1
				c0.5-0.9,1.6-1.3,2.5-1.3c2.2,0,3.1,1.5,3.1,3.4c0,5.4,0,5.4,0,5.4c-2.5,0-2.5,0-2.5,0c0-5.1,0-5.1,0-5.1c0-0.7-0.5-1.4-1.4-1.4
				s-1.4,0.7-1.4,1.6v5H-156.2z"/>
			<path class="st0" d="M-146.7,317.4c0,1.5,0.9,2.2,2,2.2s1.6-0.5,1.8-1.3c2.4,0.7,2.4,0.7,2.4,0.7c-0.4,1.5-1.8,3.1-4.2,3.1
				c-2.5,0-4.7-2-4.7-4.7s2.2-4.5,4.7-4.5c2.3,0,3.8,1.5,4.2,2.9c-2.4,0.7-2.4,0.7-2.4,0.7c-0.2-0.5-0.7-1.3-1.8-1.3
				C-145.8,315.2-146.7,316-146.7,317.4"/>
			<path class="st0" d="M-131,319.2c-0.5,1.6-1.8,2.9-4.1,2.9c-2.3,0-4.5-1.8-4.5-4.7s2.2-4.5,4.3-4.5c2.7,0,4.3,1.6,4.3,4.4
				c0,0.4,0,0.9,0,0.9c-5.9,0-5.9,0-5.9,0c0,0.9,0.9,1.6,2,1.6c0.9,0,1.4-0.4,1.6-1.1L-131,319.2z M-133.5,316.3
				c0-0.5-0.5-1.5-1.6-1.5c-1.3,0-1.8,0.9-1.8,1.5H-133.5z"/>
			<path class="st0" d="M-217.8,316.7c0-16.5,0-16.5,0-16.5c0-6.9-4-12.9-14.8-12.9c-9.4,0-14.8,6.2-14.8,13.4c9,0,9,0,9,0
				c0-2.7,2.2-5.4,5.8-5.4c3.2,0,4.9,1.8,4.9,3.6c0,1.3-0.7,2.2-2.5,2.4c-7.8,1.3-7.8,1.3-7.8,1.3c-5.6,0.7-9.9,4.2-9.9,10.1
				c0,5.2,4.1,10.1,11.5,10.1c4.5,0,7.8-2,9.4-4.7c0,2.2,0.4,3.6,0.4,3.6c8.8,0,8.8,0,8.8,0L-217.8,316.7L-217.8,316.7z
				 M-227.5,308.7c0,5.2-3.2,6.7-6.3,6.7c-2.7,0-4-1.6-4-3.4c0-2.4,1.6-3.4,3.8-3.8c6.5-0.9,6.5-0.9,6.5-0.9V308.7z"/>
		</g>
	</g>
	<g id="Layer_2">
	</g>
</g>
</svg>
